picowal_hx_cu/tb_picowal.vcd
$date
	Thu Apr 30 18:38:49 2026
$end
$version
	Icarus Verilog
$end
$timescale
	1ps
$end
$scope module tb_picowal $end
$var wire 16 ! sram_data [15:0] $end
$var wire 1 " uart_tx $end
$var wire 1 # w5100_sck $end
$var wire 1 $ w5100_rst_n $end
$var wire 1 % w5100_mosi $end
$var wire 1 & w5100_cs_n $end
$var wire 1 ' sram_we_n $end
$var wire 1 ( sram_ub_n $end
$var wire 1 ) sram_oe_n $end
$var wire 1 * sram_lb_n $end
$var wire 1 + sram_ce_n $end
$var wire 18 , sram_addr [17:0] $end
$var wire 1 - sd_sck $end
$var wire 1 . sd_mosi $end
$var wire 1 / sd_cs_n $end
$var wire 8 0 leds [7:0] $end
$var reg 1 1 clk_100mhz $end
$var reg 1 2 sd_detect $end
$var reg 1 3 sd_miso $end
$var reg 16 4 sram_drive [15:0] $end
$var reg 1 5 sram_driving $end
$var reg 1 6 uart_rx $end
$var reg 1 7 w5100_int_n $end
$var reg 1 8 w5100_miso $end
$scope module dut $end
$var wire 1 1 clk_100mhz $end
$var wire 1 9 cmd_fork $end
$var wire 1 : cmd_join $end
$var wire 1 ; cmd_raise $end
$var wire 1 < cmd_wait $end
$var wire 1 = ctx_done_cycle $end
$var wire 32 > for_counter [31:0] $end
$var wire 32 ? for_limit [31:0] $end
$var wire 3 @ http_ctx_id [2:0] $end
$var wire 1 A http_new_conn $end
$var wire 7 B instr_addr [6:0] $end
$var wire 1 C instr_valid $end
$var wire 32 D instruction [31:0] $end
$var wire 1 E pipe_start $end
$var wire 1 F rf_we $end
$var wire 1 G rst_n $end
$var wire 1 2 sd_detect $end
$var wire 1 3 sd_miso $end
$var wire 1 H sd_spi_burst $end
$var wire 1 I sd_spi_start $end
$var wire 8 J sd_spi_txdata [7:0] $end
$var wire 1 K sram_burst $end
$var wire 1 L sram_cmd_write $end
$var wire 16 M sram_data [15:0] $end
$var wire 1 6 uart_rx $end
$var wire 1 " uart_tx $end
$var wire 1 7 w5100_int_n $end
$var wire 1 8 w5100_miso $end
$var wire 1 $ w5100_rst_n $end
$var wire 4 N wait_mask [3:0] $end
$var wire 8 O w5100_spi_txdata [7:0] $end
$var wire 1 P w5100_spi_start $end
$var wire 8 Q w5100_spi_rxdata [7:0] $end
$var wire 1 R w5100_spi_done $end
$var wire 1 S w5100_spi_busy $end
$var wire 1 T w5100_spi_burst $end
$var wire 1 # w5100_sck $end
$var wire 1 % w5100_mosi $end
$var wire 1 & w5100_cs_n $end
$var wire 1 U stack_underflow $end
$var wire 1 V stack_overflow $end
$var wire 1 ' sram_we_n $end
$var wire 1 ( sram_ub_n $end
$var wire 16 W sram_rdata [15:0] $end
$var wire 1 ) sram_oe_n $end
$var wire 1 * sram_lb_n $end
$var wire 1 X sram_done $end
$var wire 16 Y sram_cmd_wdata [15:0] $end
$var wire 1 Z sram_cmd_read $end
$var wire 18 [ sram_cmd_addr [17:0] $end
$var wire 1 + sram_ce_n $end
$var wire 1 \ sram_busy $end
$var wire 18 ] sram_addr [17:0] $end
$var wire 1 ^ sel_sched $end
$var wire 1 _ sel_pipe $end
$var wire 1 ` sel_mul $end
$var wire 1 a sel_mem $end
$var wire 1 b sel_http $end
$var wire 1 c sel_flow $end
$var wire 1 d sel_dsp $end
$var wire 1 e sel_div $end
$var wire 1 f sel_alu $end
$var wire 8 g sd_spi_rxdata [7:0] $end
$var wire 1 h sd_spi_done $end
$var wire 1 i sd_spi_busy $end
$var wire 1 - sd_sck $end
$var wire 1 . sd_mosi $end
$var wire 1 / sd_cs_n $end
$var wire 32 j rf_wdata [31:0] $end
$var wire 7 k rf_waddr [6:0] $end
$var wire 7 l rf_raddr2 [6:0] $end
$var wire 7 m rf_raddr1 [6:0] $end
$var wire 1 n req_valid $end
$var wire 4 o req_tenant [3:0] $end
$var wire 2 p req_socket [1:0] $end
$var wire 8 q req_pack [7:0] $end
$var wire 2 r req_method [1:0] $end
$var wire 1 s req_is_list $end
$var wire 16 t req_card [15:0] $end
$var wire 3 u raise_target [2:0] $end
$var wire 4 v raise_channel [3:0] $end
$var wire 1 w pll_locked $end
$var wire 1 x pipe_sram_read $end
$var wire 18 y pipe_sram_addr [17:0] $end
$var wire 8 z pipe_spi_txdata [7:0] $end
$var wire 1 { pipe_spi_start $end
$var wire 1 | pipe_spi_burst $end
$var wire 3 } pipe_done_ctx [2:0] $end
$var wire 1 ~ pipe_done $end
$var wire 1 !" pipe_busy $end
$var wire 1 "" pc_update $end
$var wire 7 #" pc_ip [6:0] $end
$var wire 16 $" pc_card [15:0] $end
$var wire 1 %" need_card_load $end
$var wire 8 &" leds [7:0] $end
$var wire 1 '" is_wait $end
$var wire 1 (" is_template $end
$var wire 1 )" is_switch $end
$var wire 1 *" is_sub $end
$var wire 1 +" is_save $end
$var wire 1 ," is_return $end
$var wire 1 -" is_raise $end
$var wire 1 ." is_pipe $end
$var wire 1 /" is_noop $end
$var wire 1 0" is_mul $end
$var wire 1 1" is_load $end
$var wire 1 2" is_jump $end
$var wire 1 3" is_join $end
$var wire 1 4" is_inc $end
$var wire 1 5" is_hw_for $end
$var wire 1 6" is_http_ctrl $end
$var wire 1 7" is_fork $end
$var wire 1 8" is_foreach $end
$var wire 1 9" is_field $end
$var wire 1 :" is_dsp $end
$var wire 1 ;" is_div $end
$var wire 1 <" is_card_jump $end
$var wire 1 =" is_call $end
$var wire 1 >" is_branch $end
$var wire 1 ?" is_add $end
$var wire 3 @" irq_target_ctx [2:0] $end
$var wire 1 A" irq_request_ready $end
$var wire 3 B" fork_count [2:0] $end
$var wire 1 C" for_done $end
$var wire 1 D" flag_z $end
$var wire 1 E" flag_n $end
$var wire 1 F" flag_c $end
$var wire 4 G" dsp_subop [3:0] $end
$var wire 4 H" decode_rs2 [3:0] $end
$var wire 4 I" decode_rs1 [3:0] $end
$var wire 1 J" decode_rf_we $end
$var wire 4 K" decode_rd [3:0] $end
$var wire 4 L" decode_opcode [3:0] $end
$var wire 16 M" decode_imm16 [15:0] $end
$var wire 1 N" ctx_valid $end
$var wire 3 O" ctx_id [2:0] $end
$var wire 1 P" clk $end
$var wire 32 Q" alu_result [31:0] $end
$var wire 1 R" alu_done $end
$var wire 1 S" alu_busy $end
$var wire 32 T" alu_b [31:0] $end
$var reg 1 U" loading_card $end
$var reg 32 V" rf_rdata1 [31:0] $end
$var reg 32 W" rf_rdata2 [31:0] $end
$var reg 23 X" rst_counter [22:0] $end
$var reg 1 Y" w5100_rst_done $end
$scope module alu_inst $end
$var wire 32 Z" a [31:0] $end
$var wire 32 [" b [31:0] $end
$var wire 1 S" busy $end
$var wire 1 G rst_n $end
$var wire 1 \" start $end
$var wire 33 ]" sub_result [32:0] $end
$var wire 1 *" op_sub $end
$var wire 1 0" op_mul $end
$var wire 1 4" op_inc $end
$var wire 1 ;" op_div $end
$var wire 1 ?" op_add $end
$var wire 33 ^" inc_result [32:0] $end
$var wire 1 P" clk $end
$var wire 33 _" add_result [32:0] $end
$var reg 1 `" div_active $end
$var reg 32 a" div_divisor [31:0] $end
$var reg 32 b" div_quotient [31:0] $end
$var reg 32 c" div_remainder [31:0] $end
$var reg 5 d" div_step [4:0] $end
$var reg 1 R" done $end
$var reg 1 F" flag_c $end
$var reg 1 E" flag_n $end
$var reg 1 D" flag_z $end
$var reg 32 e" mul_acc [31:0] $end
$var reg 1 f" mul_active $end
$var reg 16 g" mul_b_shift [15:0] $end
$var reg 4 h" mul_step [3:0] $end
$var reg 32 i" result [31:0] $end
$scope begin $unm_blk_27 $end
$var reg 32 j" trial [31:0] $end
$upscope $end
$upscope $end
$scope module branch_inst $end
$var wire 1 F" flag_c $end
$var wire 1 k" flag_eof $end
$var wire 1 l" flag_err $end
$var wire 1 E" flag_n $end
$var wire 1 D" flag_z $end
$var wire 32 m" for_counter [31:0] $end
$var wire 32 n" for_limit [31:0] $end
$var wire 32 o" reg_val [31:0] $end
$var wire 1 G rst_n $end
$var wire 6 p" stack_addr [5:0] $end
$var wire 4 q" rs2 [3:0] $end
$var wire 4 r" rs1 [3:0] $end
$var wire 1 )" is_switch $end
$var wire 1 ," is_return $end
$var wire 1 2" is_jump $end
$var wire 1 5" is_hw_for $end
$var wire 1 <" is_card_jump $end
$var wire 1 =" is_call $end
$var wire 1 >" is_branch $end
$var wire 16 s" imm16 [15:0] $end
$var wire 3 t" ctx_id [2:0] $end
$var wire 1 P" clk $end
$var reg 1 u" branch_taken $end
$var reg 1 C" for_done $end
$var reg 1 %" need_card_load $end
$var reg 16 v" pc_card [15:0] $end
$var reg 7 w" pc_ip [6:0] $end
$var reg 1 "" pc_update $end
$var reg 1 V stack_overflow $end
$var reg 1 U stack_underflow $end
$scope begin rst_loop $end
$var integer 32 x" i [31:0] $end
$upscope $end
$upscope $end
$scope module decode_inst $end
$var wire 32 y" instruction [31:0] $end
$var wire 1 ?" is_add $end
$var wire 1 >" is_branch $end
$var wire 1 =" is_call $end
$var wire 1 <" is_card_jump $end
$var wire 1 ;" is_div $end
$var wire 1 :" is_dsp $end
$var wire 1 9" is_field $end
$var wire 1 8" is_foreach $end
$var wire 1 7" is_fork $end
$var wire 1 6" is_http_ctrl $end
$var wire 1 5" is_hw_for $end
$var wire 1 4" is_inc $end
$var wire 1 3" is_join $end
$var wire 1 2" is_jump $end
$var wire 1 1" is_load $end
$var wire 1 0" is_mul $end
$var wire 1 /" is_noop $end
$var wire 1 ." is_pipe $end
$var wire 1 -" is_raise $end
$var wire 1 ," is_return $end
$var wire 1 +" is_save $end
$var wire 1 *" is_sub $end
$var wire 1 )" is_switch $end
$var wire 1 (" is_template $end
$var wire 1 '" is_wait $end
$var wire 4 z" rf_raddr1 [3:0] $end
$var wire 4 {" rf_raddr2 [3:0] $end
$var wire 4 |" rf_waddr [3:0] $end
$var wire 1 J" rf_we $end
$var wire 1 f sel_alu $end
$var wire 1 e sel_div $end
$var wire 1 d sel_dsp $end
$var wire 1 c sel_flow $end
$var wire 1 b sel_http $end
$var wire 1 a sel_mem $end
$var wire 1 ` sel_mul $end
$var wire 1 _ sel_pipe $end
$var wire 1 ^ sel_sched $end
$var wire 1 C valid $end
$var wire 4 }" rs2 [3:0] $end
$var wire 4 ~" rs1 [3:0] $end
$var wire 4 !# rd [3:0] $end
$var wire 4 "# opcode [3:0] $end
$var wire 16 ## imm16 [15:0] $end
$var wire 4 $# dsp_subop [3:0] $end
$var wire 4 %# condition [3:0] $end
$var wire 1 &# br_z $end
$var wire 1 '# br_nz $end
$var wire 1 (# br_ne $end
$var wire 1 )# br_lt $end
$var wire 1 *# br_le $end
$var wire 1 +# br_gt $end
$var wire 1 ,# br_ge $end
$var wire 1 -# br_err $end
$var wire 1 .# br_eq $end
$var wire 1 /# br_eof $end
$upscope $end
$scope module http_inst $end
$var wire 1 G rst_n $end
$var wire 2 0# socket_id [1:0] $end
$var wire 3 1# target_ctx [2:0] $end
$var wire 1 R rx_valid $end
$var wire 8 2# rx_byte [7:0] $end
$var wire 1 P" clk $end
$var parameter 2 3# METHOD_DELETE $end
$var parameter 2 4# METHOD_GET $end
$var parameter 2 5# METHOD_POST $end
$var parameter 2 6# METHOD_PUT $end
$var parameter 4 7# S_BODY $end
$var parameter 4 8# S_CARD $end
$var parameter 4 9# S_DONE $end
$var parameter 4 :# S_ERROR $end
$var parameter 4 ;# S_HEADERS $end
$var parameter 4 <# S_IDLE $end
$var parameter 4 =# S_METHOD $end
$var parameter 4 ># S_PACK $end
$var parameter 4 ?# S_SKIP_VER $end
$var parameter 4 @# S_TENANT $end
$var parameter 4 A# S_URL_SLASH1 $end
$var reg 9 B# body_length [8:0] $end
$var reg 1 C# body_start $end
$var reg 16 D# card_accum [15:0] $end
$var reg 1 E# card_seen $end
$var reg 2 F# crlf_count [1:0] $end
$var reg 1 A" irq_request_ready $end
$var reg 3 G# irq_target_ctx [2:0] $end
$var reg 3 H# method_pos [2:0] $end
$var reg 8 I# pack_hash [7:0] $end
$var reg 1 J# prev_cr $end
$var reg 1 K# prev_lf $end
$var reg 16 L# req_card [15:0] $end
$var reg 1 s req_is_list $end
$var reg 2 M# req_method [1:0] $end
$var reg 8 N# req_pack [7:0] $end
$var reg 2 O# req_socket [1:0] $end
$var reg 4 P# req_tenant [3:0] $end
$var reg 1 n req_valid $end
$var reg 4 Q# state [3:0] $end
$upscope $end
$scope module pipe_inst $end
$var wire 18 R# card_addr [17:0] $end
$var wire 9 S# card_len [8:0] $end
$var wire 1 E cmd_start $end
$var wire 1 G rst_n $end
$var wire 1 (" template_mode $end
$var wire 4 T# tmpl_field_len [3:0] $end
$var wire 1 U# tmpl_field_ready $end
$var wire 32 V# tmpl_field_val [31:0] $end
$var wire 1 W# tmpl_foreach_done $end
$var wire 1 X# tmpl_foreach_next $end
$var wire 16 Y# sram_rdata [15:0] $end
$var wire 1 X sram_done $end
$var wire 1 R spi_done $end
$var wire 3 Z# ctx_id [2:0] $end
$var wire 1 P" clk $end
$var wire 1 !" busy $end
$var parameter 4 [# COMPLETE $end
$var parameter 4 \# IDLE $end
$var parameter 4 ]# SPI_HI $end
$var parameter 4 ^# SPI_HI_WAIT $end
$var parameter 4 _# SPI_LO $end
$var parameter 4 `# SPI_LO_WAIT $end
$var parameter 4 a# SRAM_REQ $end
$var parameter 4 b# SRAM_WAIT $end
$var parameter 4 c# TMPL_CHECK $end
$var parameter 4 d# TMPL_FIELD $end
$var parameter 4 e# TMPL_FOREACH $end
$var reg 18 f# cur_addr [17:0] $end
$var reg 16 g# cur_word [15:0] $end
$var reg 1 ~ done $end
$var reg 3 h# done_ctx [2:0] $end
$var reg 4 i# field_byte_idx [3:0] $end
$var reg 3 j# pipe_ctx [2:0] $end
$var reg 1 | spi_burst $end
$var reg 1 { spi_start $end
$var reg 8 k# spi_txdata [7:0] $end
$var reg 18 l# sram_addr [17:0] $end
$var reg 1 x sram_read $end
$var reg 4 m# state [3:0] $end
$var reg 4 n# tmpl_field_id [3:0] $end
$var reg 1 o# tmpl_field_req $end
$var reg 8 p# tmpl_foreach_pack [7:0] $end
$var reg 1 q# tmpl_foreach_start $end
$var reg 9 r# word_cnt [8:0] $end
$upscope $end
$scope module pll_inst $end
$var wire 1 s# BYPASS $end
$var wire 1 P" PLLOUTCORE $end
$var wire 1 1 REFERENCECLK $end
$var wire 1 t# RESETB $end
$var wire 1 w LOCK $end
$var parameter 7 u# DIVF $end
$var parameter 3 v# DIVQ $end
$var parameter 4 w# DIVR $end
$var parameter 48 x# FEEDBACK_PATH $end
$var parameter 3 y# FILTER_RANGE $end
$var reg 1 w lock_reg $end
$upscope $end
$scope module sched_inst $end
$var wire 1 P" clk $end
$var wire 1 9 cmd_fork $end
$var wire 1 : cmd_join $end
$var wire 1 ; cmd_raise $end
$var wire 1 < cmd_wait $end
$var wire 1 = ctx_done_cycle $end
$var wire 2 z# ctx_state_0 [1:0] $end
$var wire 2 {# ctx_state_1 [1:0] $end
$var wire 2 |# ctx_state_2 [1:0] $end
$var wire 2 }# ctx_state_3 [1:0] $end
$var wire 2 ~# ctx_state_4 [1:0] $end
$var wire 2 !$ ctx_state_5 [1:0] $end
$var wire 2 "$ ctx_state_6 [1:0] $end
$var wire 2 #$ ctx_state_7 [1:0] $end
$var wire 3 $$ fork_count [2:0] $end
$var wire 3 %$ http_ctx_id [2:0] $end
$var wire 1 A http_new_conn $end
$var wire 4 &$ raise_channel [3:0] $end
$var wire 3 '$ raise_target [2:0] $end
$var wire 1 G rst_n $end
$var wire 4 ($ wait_mask [3:0] $end
$var wire 1 )$ any_active $end
$var wire 8 *$ active_mask [7:0] $end
$var parameter 2 +$ CTX_ACTIVE $end
$var parameter 2 ,$ CTX_FORKED $end
$var parameter 2 -$ CTX_IDLE $end
$var parameter 2 .$ CTX_WAITING $end
$var reg 3 /$ active_ctx [2:0] $end
$var reg 1 N" ctx_valid $end
$var reg 8 0$ fork_done_flags [7:0] $end
$var reg 3 1$ fork_parent [2:0] $end
$var reg 1 2$ found $end
$var reg 3 3$ next_ctx [2:0] $end
$var reg 3 4$ rr_ptr [2:0] $end
$var integer 32 5$ k [31:0] $end
$upscope $end
$scope module sd_spi_inst $end
$var wire 1 P" clk $end
$var wire 1 H cmd_burst $end
$var wire 3 6$ cmd_clkdiv [2:0] $end
$var wire 1 7$ cmd_cs_sel $end
$var wire 1 I cmd_start $end
$var wire 8 8$ cmd_txdata [7:0] $end
$var wire 1 G rst_n $end
$var wire 1 3 spi_miso $end
$var wire 1 - spi_sck $end
$var wire 1 . spi_mosi $end
$var wire 1 i busy $end
$var parameter 2 9$ FINISH $end
$var parameter 2 :$ IDLE $end
$var parameter 2 ;$ RUNNING $end
$var reg 3 <$ bit_cnt [2:0] $end
$var reg 1 =$ burst_reg $end
$var reg 3 >$ clk_cnt [2:0] $end
$var reg 1 / cs_sd_n $end
$var reg 1 ?$ cs_sel_reg $end
$var reg 1 @$ cs_w5100_n $end
$var reg 1 h done $end
$var reg 8 A$ rx_data [7:0] $end
$var reg 1 B$ sck_edge $end
$var reg 1 C$ sck_reg $end
$var reg 8 D$ shift_in [7:0] $end
$var reg 8 E$ shift_out [7:0] $end
$var reg 2 F$ state [1:0] $end
$upscope $end
$scope module sram_inst $end
$var wire 1 P" clk $end
$var wire 18 G$ cmd_addr [17:0] $end
$var wire 1 K cmd_burst $end
$var wire 1 Z cmd_read $end
$var wire 16 H$ cmd_wdata [15:0] $end
$var wire 1 L cmd_write $end
$var wire 1 G rst_n $end
$var wire 16 I$ sram_data [15:0] $end
$var wire 1 \ busy $end
$var parameter 3 J$ DONE_S $end
$var parameter 3 K$ IDLE $end
$var parameter 3 L$ READ_S1 $end
$var parameter 3 M$ READ_S2 $end
$var parameter 3 N$ WRITE_S1 $end
$var parameter 3 O$ WRITE_S2 $end
$var reg 1 X done $end
$var reg 1 P$ drive_data $end
$var reg 16 Q$ rdata [15:0] $end
$var reg 18 R$ sram_addr [17:0] $end
$var reg 1 + sram_ce_n $end
$var reg 1 * sram_lb_n $end
$var reg 1 ) sram_oe_n $end
$var reg 1 ( sram_ub_n $end
$var reg 1 ' sram_we_n $end
$var reg 3 S$ state [2:0] $end
$var reg 16 T$ wdata_reg [15:0] $end
$upscope $end
$scope module w5100_spi_inst $end
$var wire 1 P" clk $end
$var wire 1 T cmd_burst $end
$var wire 3 U$ cmd_clkdiv [2:0] $end
$var wire 1 V$ cmd_cs_sel $end
$var wire 1 P cmd_start $end
$var wire 8 W$ cmd_txdata [7:0] $end
$var wire 1 G rst_n $end
$var wire 1 8 spi_miso $end
$var wire 1 # spi_sck $end
$var wire 1 % spi_mosi $end
$var wire 1 S busy $end
$var parameter 2 X$ FINISH $end
$var parameter 2 Y$ IDLE $end
$var parameter 2 Z$ RUNNING $end
$var reg 3 [$ bit_cnt [2:0] $end
$var reg 1 \$ burst_reg $end
$var reg 3 ]$ clk_cnt [2:0] $end
$var reg 1 ^$ cs_sd_n $end
$var reg 1 _$ cs_sel_reg $end
$var reg 1 & cs_w5100_n $end
$var reg 1 R done $end
$var reg 8 `$ rx_data [7:0] $end
$var reg 1 a$ sck_edge $end
$var reg 1 b$ sck_reg $end
$var reg 8 c$ shift_in [7:0] $end
$var reg 8 d$ shift_out [7:0] $end
$var reg 2 e$ state [1:0] $end
$upscope $end
$upscope $end
$upscope $end
$enddefinitions $end
$comment Show the parameter values. $end
$dumpall
b1 Z$
b0 Y$
b10 X$
b100 O$
b11 N$
b10 M$
b1 L$
b0 K$
b101 J$
b1 ;$
b0 :$
b10 9$
b10 .$
b0 -$
b11 ,$
b1 +$
b10 y#
b10100110100100101001101010100000100110001000101 x#
b100 w#
b11 v#
b10011 u#
b1001 e#
b1000 d#
b111 c#
b10 b#
b1 a#
b110 `#
b101 _#
b100 ^#
b11 ]#
b0 \#
b1010 [#
b10 A#
b11 @#
b110 ?#
b100 >#
b1 =#
b0 <#
b111 ;#
b1010 :#
b1001 9#
b101 8#
b1000 7#
b10 6#
b1 5#
b0 4#
b11 3#
$end
#0
$dumpvars
bx e$
bx d$
bx c$
xb$
xa$
bx `$
x_$
x^$
bx ]$
x\$
bx [$
bx W$
0V$
b1 U$
bx T$
bx S$
bx R$
bx Q$
xP$
bx I$
bx H$
bx G$
bx F$
bx E$
bx D$
xC$
xB$
bx A$
x@$
x?$
bx >$
x=$
bx <$
bz 8$
17$
b0 6$
bx 5$
bx 4$
bx 3$
x2$
bx 1$
bx 0$
bx /$
bx *$
x)$
bx ($
bx '$
bx &$
bx %$
bx $$
bx #$
bx "$
bx !$
bx ~#
bx }#
bx |#
bx {#
bx z#
1t#
0s#
bx r#
xq#
bx p#
xo#
bx n#
bx m#
bx l#
bx k#
bx j#
bx i#
bx h#
bx g#
bx f#
bx Z#
bx Y#
0X#
0W#
b0 V#
0U#
b0 T#
b100000000 S#
bx R#
bx Q#
bx P#
bx O#
bx N#
bx M#
bx L#
xK#
xJ#
bx I#
bx H#
bx G#
bx F#
xE#
bx D#
xC#
bx B#
bx 2#
b0 1#
b0 0#
x/#
x.#
x-#
x,#
x+#
x*#
x)#
x(#
x'#
x&#
bx %#
bx $#
bx ##
bx "#
bx !#
bx ~"
bx }"
bx |"
bx {"
bx z"
bx y"
bx x"
bx w"
bx v"
0u"
bx t"
bx s"
bx r"
bx q"
bx p"
bx o"
bx n"
bx m"
0l"
0k"
bx j"
bx i"
bx h"
bx g"
xf"
bx e"
bx d"
bx c"
bx b"
bx a"
x`"
bx _"
bx ^"
bx ]"
x\"
bx ["
bx Z"
xY"
bx X"
bx W"
bx V"
0U"
bx T"
xS"
xR"
bx Q"
0P"
bx O"
xN"
bx M"
bx L"
bx K"
xJ"
bx I"
bx H"
bx G"
xF"
xE"
xD"
xC"
bx B"
xA"
bx @"
x?"
x>"
x="
x<"
x;"
x:"
x9"
x8"
x7"
x6"
x5"
x4"
x3"
x2"
x1"
x0"
x/"
x."
x-"
x,"
x+"
x*"
x)"
x("
x'"
b0xxxxxxx &"
x%"
bx $"
bx #"
x""
x!"
x~
bx }
x|
x{
bx z
bx y
xx
0w
bx v
bx u
bx t
xs
bx r
bx q
bx p
bx o
xn
bx m
bx l
bx k
bx j
xi
xh
bx g
xf
xe
xd
xc
xb
xa
x`
x_
x^
bx ]
x\
bx [
xZ
bx Y
xX
bx W
xV
xU
xT
xS
xR
bx Q
xP
bx O
bx N
bx M
xL
xK
bz J
zI
zH
0G
xF
xE
bx D
xC
bx B
xA
bx @
bx ?
bx >
x=
x<
x;
x:
x9
08
17
16
x5
bx 4
03
12
01
b0xxxxxxx 0
x/
x.
x-
bx ,
x+
x*
x)
x(
x'
x&
x%
x$
x#
1"
bx !
$end
#5000
1C
0F
bz !
bz M
bz I$
b0 3$
12$
1)$
b1 *$
0S"
b0 j
05
0%
0.
0T
b0 O
b0 W$
0P
b0xxxxxxxxxxxxxxxx [
b0xxxxxxxxxxxxxxxx R#
b0xxxxxxxxxxxxxxxx G$
b0 0$
b0 1$
b0 4$
1N"
b0 p"
b0xxxx k
b0xxxx l
b0xxxx m
b0 O"
b0 t"
b0 Z#
b0 /$
b0 #$
b0 "$
b0 !$
b0 ~#
b0 }#
b0 |#
b0 {#
b1 z#
b0 d"
b0 h"
0`"
0f"
0F"
0E"
0D"
0R"
b0 Q"
b0 i"
0C"
0U
0V
0%"
0""
b0 W
b0 Y#
b0 Q$
0X
0P$
0(
0*
1'
1)
1+
0\
b0 S$
0a$
b0 ]$
b111 [$
0R
b0 Q
b0 2#
b0 `$
b0 c$
b0 d$
1^$
1&
0#
0b$
0S
b0 e$
0B$
b0 >$
b111 <$
0h
b0 g
b0 A$
b0 D$
b0 E$
1/
1@$
0-
0C$
0i
b0 F$
0q#
0o#
0|
0{
0x
0~
0K
0!"
b0 m#
0K#
0J#
b0 F#
0E#
b0 D#
b0 I#
b0 H#
0A
0A"
0C#
0n
b0 Q#
0$
0Y"
b0 X"
b11000000 0
b11000000 &"
1G
1w
b1000 x"
b1000 5$
1P"
11
#10000
0P"
01
#15000
0=
0c
1J"
0^
1\"
0a
0Z
0L
1f
0_
0E
0<
0;
0<"
b101010 T"
b101010 ["
0b
06"
09
07"
0:
03"
0/"
01"
0+"
0."
1?"
0*"
0`
00"
0e
0;"
04"
02"
0>"
0="
0,"
0'"
0-"
0d
0:"
b0 u
b0 '$
09"
08"
0("
05"
0)"
1.#
0(#
0)#
0+#
0*#
0,#
0&#
0'#
0/#
0-#
b0 %#
b0 G"
b0 $#
b101010 [
b101010 R#
b101010 G$
b10 B"
b10 $$
b1010 v
b1010 &$
b1010 N
b1010 ($
b100 L"
b100 "#
b0 |"
b0 k
b0 K"
b0 !#
b0 z"
b0 m
b0 I"
b0 r"
b0 ~"
b0 {"
b0 l
b0 H"
b0 q"
b0 }"
b101010 M"
b101010 s"
b101010 ##
b1 X"
1""
b1000000000000000000000000101010 D
b1000000000000000000000000101010 y"
b0 B
b0 #"
b0 w"
b0 $"
b0 v"
1P"
11
#20000
0P"
01
#25000
1=
b1 [
b1 R#
b1 G$
b1 B"
b1 $$
b1 v
b1 &$
b1 N
b1 ($
b1 T"
b1 ["
b1 |"
b1 k
b1 K"
b1 !#
b1 M"
b1 s"
b1 ##
bx j
1F
xu"
b1000001000000000000000000000001 D
b1000001000000000000000000000001 y"
b1 B
b1 #"
b1 w"
1""
1R"
xE"
xD"
xF"
bx Q"
bx i"
b10 X"
1P"
11
#30000
0P"
01
#35000
0?"
1*"
b1 u
b1 '$
b1010 [
b1010 R#
b1010 G$
b10 B"
b10 $$
b1010 v
b1010 &$
b1010 N
b1010 ($
b1010 T"
b1010 ["
b101 L"
b101 "#
b10 |"
b10 k
b10 K"
b10 !#
b1 z"
b1 m
b1 I"
b1 r"
b1 ~"
b1010 M"
b1010 s"
b1010 ##
b11 X"
1R"
b1010010000100000000000000001010 D
b1010010000100000000000000001010 y"
b10 B
b10 #"
b10 w"
1""
1P"
11
#40000
0P"
01
#45000
0J"
1^
0\"
0f
1/"
0*"
b0 u
b0 '$
b0 [
b0 R#
b0 G$
b0 B"
b0 $$
b0 v
b0 &$
b0 N
b0 ($
b0 T"
b0 ["
b0 L"
b0 "#
b0 |"
b0 k
b0 K"
b0 !#
b0 z"
b0 m
b0 I"
b0 r"
b0 ~"
b0 M"
b0 s"
b0 ##
b0 D
b0 y"
b11 B
b11 #"
b11 w"
1""
1R"
b100 X"
1P"
11
#50000
0P"
01
#55000
b0 j
0F
b101 X"
0R"
b100 B
b100 #"
b100 w"
1""
1P"
11
#60000
0P"
01
#65000
x=
x^
xJ"
xZ
xL
xc
x<"
x9"
x8"
xa
x("
x_
xE
x\"
xf
x)"
x5"
x.#
x(#
x)#
x+#
x*#
x,#
x&#
x'#
x/#
x-#
bx %#
x<
x;
bx G"
bx $#
xb
x6"
x9
x7"
x:
x3"
x/"
x1"
x+"
x."
x?"
x*"
x`
x0"
xe
x;"
x4"
x2"
x>"
x="
x,"
x'"
x-"
xd
x:"
bx u
bx '$
0u"
b0xxxxxxxxxxxxxxxx [
b0xxxxxxxxxxxxxxxx R#
b0xxxxxxxxxxxxxxxx G$
bx B"
bx $$
bx v
bx &$
bx N
bx ($
bx T"
bx ["
bx L"
bx "#
bx |"
b0xxxx k
bx K"
bx !#
bx z"
b0xxxx m
bx I"
bx r"
bx ~"
bx {"
b0xxxx l
bx H"
bx q"
bx }"
bx M"
bx s"
bx ##
bx D
bx y"
b101 B
b101 #"
b101 w"
1""
b110 X"
1P"
11
#70000
0P"
01
#75000
b111 X"
b110 B
b110 #"
b110 w"
1""
1P"
11
#80000
0P"
01
#85000
b111 B
b111 #"
b111 w"
1""
b1000 X"
1P"
11
#90000
0P"
01
#95000
b1001 X"
b1000 B
b1000 #"
b1000 w"
1""
1P"
11
#100000
0P"
01
#105000
b1001 B
b1001 #"
b1001 w"
1""
b1010 X"
1P"
11
#110000
0P"
01
#115000
b1011 X"
b1010 B
b1010 #"
b1010 w"
1""
1P"
11
#120000
0P"
01
#125000
b1011 B
b1011 #"
b1011 w"
1""
b1100 X"
1P"
11
#130000
0P"
01
#135000
b1101 X"
b1100 B
b1100 #"
b1100 w"
1""
1P"
11
#140000
0P"
01
#145000
b1101 B
b1101 #"
b1101 w"
1""
b1110 X"
1P"
11
#150000
0P"
01
#155000
b1111 X"
b1110 B
b1110 #"
b1110 w"
1""
1P"
11
#160000
0P"
01
#165000
b1111 B
b1111 #"
b1111 w"
1""
b10000 X"
1P"
11
#170000
0P"
01
#175000
b10001 X"
b10000 B
b10000 #"
b10000 w"
1""
1P"
11
#180000
0P"
01
#185000
b10001 B
b10001 #"
b10001 w"
1""
b10010 X"
1P"
11
#190000
0P"
01
#195000
b10011 X"
b10010 B
b10010 #"
b10010 w"
1""
1P"
11
#200000
0P"
01
#205000
b10011 B
b10011 #"
b10011 w"
1""
b10100 X"
1P"
11
#210000
0P"
01
#215000
b10101 X"
b10100 B
b10100 #"
b10100 w"
1""
1P"
11
#220000
0P"
01
#225000
b10101 B
b10101 #"
b10101 w"
1""
b10110 X"
1P"
11
#230000
0P"
01
#235000
b10111 X"
b10110 B
b10110 #"
b10110 w"
1""
1P"
11
#240000
0P"
01
#245000
b10111 B
b10111 #"
b10111 w"
1""
b11000 X"
1P"
11
#250000
0P"
01
#255000
b11001 X"
b11000 B
b11000 #"
b11000 w"
1""
1P"
11
#260000
0P"
01
#265000
b11001 B
b11001 #"
b11001 w"
1""
b11010 X"
1P"
11
#270000
0P"
01
#275000
b11011 X"
b11010 B
b11010 #"
b11010 w"
1""
1P"
11
#280000
0P"
01
#285000
b11011 B
b11011 #"
b11011 w"
1""
b11100 X"
1P"
11
#290000
0P"
01
#295000
b11101 X"
b11100 B
b11100 #"
b11100 w"
1""
1P"
11
#300000
0P"
01
